<?xml version="1.0" encoding="UTF-8"?>
<svg width="60px" height="46px" viewBox="0 0 60 46" version="1.1" xmlns="http://www.w3.org/2000/svg" xmlns:xlink="http://www.w3.org/1999/xlink">
    <!-- Generator: sketchtool 62 (101010) - https://sketch.com -->
    <title>67D0E0B5-F7F2-4EB4-905F-DC436FECFA77@3x</title>
    <desc>Created with sketchtool.</desc>
    <g id="NOSOTROS" stroke="none" stroke-width="1" fill="none" fill-rule="evenodd" stroke-linecap="round" stroke-linejoin="round">
        <g id="nosotros_desktop_01b" transform="translate(-243.000000, -2597.000000)" stroke="#593D8F" stroke-width="2">
            <g id="Group-7" transform="translate(244.000000, 2592.000000)">
                <g id="Group-12" transform="translate(0.000000, 6.000000)">
                    <path d="M45.5110801,6 L52.755786,6 C55.6397498,6 58,8.35319396 58,11.2285359 L58,38.7726401 C58,41.6479821 55.6397498,44 52.755786,44 L5.24421402,44 C2.36025017,44 0,41.6479821 0,38.7726401 L0,11.2285359 C0,8.35319396 2.36025017,6 5.24421402,6 L13.2862858,6" id="Stroke-85"></path>
                    <path d="M35.5707639,7 L24.4280729,7 C22.5424583,7 21,5.42571235 21,3.5 C21,1.5754749 22.5424583,0 24.4280729,0 L35.5707639,0 C37.4563784,0 39,1.5754749 39,3.5 C39,5.42571235 37.4563784,7 35.5707639,7 Z" id="Stroke-97"></path>
                    <line x1="29.5" y1="34" x2="29.5" y2="15" id="Stroke-93"></line>
                    <line x1="39" y1="24.5" x2="20" y2="24.5" id="Stroke-87"></line>
                </g>
            </g>
        </g>
    </g>
</svg>