<?xml version="1.0" encoding="UTF-8"?>
<svg width="59px" height="51px" viewBox="0 0 59 51" version="1.1" xmlns="http://www.w3.org/2000/svg" xmlns:xlink="http://www.w3.org/1999/xlink">
    <!-- Generator: sketchtool 62 (101010) - https://sketch.com -->
    <title>07E8AF76-F46F-44F5-B41C-751A58607B4B@3x</title>
    <desc>Created with sketchtool.</desc>
    <g id="SERVICIOS" stroke="none" stroke-width="1" fill="none" fill-rule="evenodd">
        <g id="servicios_desktop_02" transform="translate(-1024.000000, -674.000000)">
            <g id="caracteristica-destacada" transform="translate(296.000000, 669.000000)">
                <g id="Group-9" transform="translate(729.000000, 6.000000)">
                    <path d="M51.942,38.278 L4.445,38.278 C2,38.278 -5.00932629e-13,36.278 -5.00932629e-13,33.833 L-5.00932629e-13,4.445 C-5.00932629e-13,2 2,-1.10134124e-13 4.445,-1.10134124e-13 L51.942,-1.10134124e-13 C54.387,-1.10134124e-13 56.388,2 56.388,4.445 L56.388,33.833 C56.388,36.278 54.387,38.278 51.942,38.278" id="Fill-27" fill="#FEFEFE"></path>
                    <path d="M51.942,38.278 L4.445,38.278 C2,38.278 -5.00932629e-13,36.278 -5.00932629e-13,33.833 L-5.00932629e-13,4.445 C-5.00932629e-13,2 2,-1.10134124e-13 4.445,-1.10134124e-13 L51.942,-1.10134124e-13 C54.387,-1.10134124e-13 56.388,2 56.388,4.445 L56.388,33.833 C56.388,36.278 54.387,38.278 51.942,38.278 Z" id="Stroke-29" stroke="#EB7C1F" stroke-width="2"></path>
                    <line x1="22.1471" y1="48.1315" x2="25.3051" y2="37.6085" id="Fill-31" fill="#FEFEFE"></line>
                    <line x1="22.1471" y1="48.1315" x2="25.3051" y2="37.6085" id="Stroke-33" stroke="#EB7C1F" stroke-width="2" stroke-linejoin="round"></line>
                    <line x1="30.1212" y1="48.3288" x2="33.2792" y2="37.8048" id="Fill-35" fill="#FEFEFE"></line>
                    <line x1="30.1212" y1="48.3288" x2="33.2792" y2="37.8048" id="Stroke-37" stroke="#EB7C1F" stroke-width="2" stroke-linejoin="round"></line>
                    <line x1="11.2653" y1="48.3288" x2="44.1613" y2="48.3288" id="Fill-39" fill="#FEFEFE"></line>
                    <line x1="11.2653" y1="48.3288" x2="44.1613" y2="48.3288" id="Stroke-41" stroke="#EB7C1F" stroke-width="2" stroke-linecap="round" stroke-linejoin="round"></line>
                    <line x1="9.424" y1="19.5319" x2="9.424" y2="30.7839" id="Stroke-43" stroke="#EB7C1F" stroke-width="2" stroke-linecap="round" stroke-linejoin="round"></line>
                    <line x1="13.8449" y1="10.6657" x2="13.8449" y2="30.7837" id="Stroke-45" stroke="#EB7C1F" stroke-width="2" stroke-linecap="round" stroke-linejoin="round"></line>
                    <line x1="18.2663" y1="15.0378" x2="18.2663" y2="30.7838" id="Stroke-47" stroke="#EB7C1F" stroke-width="2" stroke-linecap="round" stroke-linejoin="round"></line>
                    <line x1="22.6872" y1="19.1383" x2="22.6872" y2="30.7843" id="Stroke-49" stroke="#EB7C1F" stroke-width="2" stroke-linecap="round" stroke-linejoin="round"></line>
                    <line x1="27.1081" y1="9.1921" x2="27.1081" y2="30.7841" id="Stroke-51" stroke="#EB7C1F" stroke-width="2" stroke-linecap="round" stroke-linejoin="round"></line>
                    <line x1="48.2023" y1="30.7848" x2="36.0123" y2="30.7848" id="Stroke-53" stroke="#EB7C1F" stroke-width="2" stroke-linecap="round" stroke-linejoin="round"></line>
                    <line x1="48.2023" y1="26.0143" x2="36.0123" y2="26.0143" id="Stroke-55" stroke="#EB7C1F" stroke-width="2" stroke-linecap="round" stroke-linejoin="round"></line>
                    <path d="M48.2023,15.0378 C48.2023,18.7698 45.1773,21.7958 41.4453,21.7958 C37.7123,21.7958 34.6873,18.7698 34.6873,15.0378 C34.6873,11.3068 37.7123,8.2808 41.4453,8.2808 C45.1773,8.2808 48.2023,11.3068 48.2023,15.0378 Z" id="Stroke-57" stroke="#EB7C1F" stroke-width="2" stroke-linecap="round" stroke-linejoin="round"></path>
                    <polyline id="Stroke-59" stroke="#EB7C1F" stroke-width="2" stroke-linecap="round" stroke-linejoin="round" points="44.8234 9.1921 41.4454 15.0381 47.9904 16.6931"></polyline>
                </g>
            </g>
        </g>
    </g>
</svg>