<?xml version="1.0" encoding="UTF-8"?>
<svg width="14px" height="8px" viewBox="0 0 14 8" version="1.1" xmlns="http://www.w3.org/2000/svg" xmlns:xlink="http://www.w3.org/1999/xlink">
    <!-- Generator: sketchtool 62 (101010) - https://sketch.com -->
    <title>34E0CF41-FA41-421E-8F90-5C781D1E791B</title>
    <desc>Created with sketchtool.</desc>
    <g id="SERVICIOS" stroke="none" stroke-width="1" fill="none" fill-rule="evenodd">
        <g id="servicios_movil_02" transform="translate(-204.000000, -1324.000000)" fill="#000000">
            <g id="Group-25" transform="translate(25.000000, 1314.000000)">
                <g id="Group-4">
                    <g id="Group-9">
                        <g id="flecha-abajo" transform="translate(178.504167, 10.000000)">
                            <path d="M5.12773027,-2.24513416 C4.76362856,-2.63419593 4.19624009,-2.62271593 3.84433345,-2.21916712 C3.4924268,-1.81561831 3.48241589,-1.1649658 3.82168941,-0.747432303 L7.96159252,4 L3.82168941,8.7474323 C3.48241589,9.1649658 3.4924268,9.81561831 3.84433345,10.2191671 C4.19624009,10.6227159 4.76362856,10.6341959 5.12773027,10.2451342 L10.5736742,4 L9.26763338,2.50229814 L5.12773027,-2.24513416 Z" id="Shape-Copy-3" transform="translate(7.073674, 4.000000) rotate(-270.000000) translate(-7.073674, -4.000000) "></path>
                        </g>
                    </g>
                </g>
            </g>
        </g>
    </g>
</svg>