<?xml version="1.0" encoding="UTF-8"?>
<svg width="131px" height="39px" viewBox="0 0 131 39" version="1.1" xmlns="http://www.w3.org/2000/svg" xmlns:xlink="http://www.w3.org/1999/xlink">
    <!-- Generator: sketchtool 62 (101010) - https://sketch.com -->
    <title>F530F16C-46A6-4B50-BCBB-A845A2C05EEE@3x</title>
    <desc>Created with sketchtool.</desc>
    <defs>
        <polygon id="path-1" points="0 0.02244968 27.4106752 0.02244968 27.4106752 18.9915757 0 18.9915757"></polygon>
        <polygon id="path-3" points="0 0.02424224 7.23771708 0.02424224 7.23771708 16.9639342 0 16.9639342"></polygon>
        <polygon id="path-5" points="0.0708488 0.04349092 27.481652 0.04349092 27.481652 19.0126169 0.0708488 19.0126169"></polygon>
        <polygon id="path-7" points="0.18420688 0.15040432 7.422052 0.15040432 7.422052 17.0900963 0.18420688 17.0900963"></polygon>
    </defs>
    <g id="HOME" stroke="none" stroke-width="1" fill="none" fill-rule="evenodd">
        <g id="home_desktop_01" transform="translate(-143.000000, -16.000000)">
            <g id="cabecera-simple" transform="translate(142.000000, 12.000000)">
                <g id="Group" transform="translate(1.000000, 4.000000)">
                    <g id="logo-fusiona" transform="translate(49.000000, 13.000000)" fill="#3E3A48">
                        <path d="M0,0.857105985 C0,0.589509061 0.044001156,0.411442706 0.132003468,0.323901705 C0.22000578,0.236360703 0.393010325,0.192590203 0.651017104,0.192590203 L6.6341743,0.192590203 C6.89218107,0.192590203 7.0681857,0.239345056 7.16218817,0.332854762 C7.25519061,0.426364467 7.30319187,0.60144647 7.30319187,0.857105985 L7.30319187,1.29481099 C7.30319187,1.55246007 7.25919072,1.72455772 7.17018838,1.81110394 C7.08318609,1.89864494 6.90418139,1.94341023 6.6341743,1.94341023 L1.90004992,1.94341023 L1.90004992,5.65395494 L5.15613546,5.65395494 C5.42514253,5.65395494 5.60414723,5.69772544 5.69214955,5.78526644 C5.78115188,5.87280744 5.82515304,6.04490509 5.82515304,6.30255418 L5.82515304,6.74025918 C5.82515304,6.9959187 5.77715178,7.1710007 5.68414934,7.2645104 C5.59014687,7.35802011 5.41414224,7.40477496 5.15613546,7.40477496 L1.90004992,7.40477496 L1.90004992,11.7987364 C1.90004992,12.0673281 1.85604876,12.2424101 1.76804645,12.3239824 C1.68004414,12.4055547 1.50703959,12.4463408 1.24903282,12.4463408 L0.651017104,12.4463408 C0.393010325,12.4463408 0.22000578,12.4055547 0.132003468,12.3239824 C0.044001156,12.2424101 0,12.0673281 0,11.7987364 L0,0.857105985 Z" id="Fill-2"></path>
                        <path d="M17.966772,0.857105985 C17.966772,0.60144647 18.0107732,0.426364467 18.0987755,0.332854762 C18.1867778,0.239345056 18.3597824,0.192590203 18.6177891,0.192590203 L19.2168049,0.192590203 C19.4858119,0.192590203 19.6648166,0.239345056 19.752819,0.332854762 C19.8408213,0.426364467 19.8848224,0.60144647 19.8848224,0.857105985 L19.8848224,8.08719686 C19.8848224,9.52267032 19.4918121,10.6378233 18.7057914,11.4306662 C17.9197708,12.224504 16.8107417,12.6214228 15.3797041,12.6214228 C13.9486665,12.6214228 12.8426374,12.224504 12.0626169,11.4306662 C11.2825964,10.6378233 10.8925862,9.52267032 10.8925862,8.08719686 L10.8925862,0.857105985 C10.8925862,0.589509061 10.9365873,0.411442706 11.0245896,0.323901705 C11.112592,0.236360703 11.2855965,0.192590203 11.5436033,0.192590203 L12.1246185,0.192590203 C12.3946256,0.192590203 12.5726303,0.236360703 12.6606326,0.323901705 C12.7486349,0.411442706 12.7936361,0.589509061 12.7936361,0.857105985 L12.7936361,7.96483841 C12.7936361,8.85218584 13.0046417,9.55251385 13.4266527,10.0658224 C13.8486638,10.579131 14.4996809,10.8357853 15.3797041,10.8357853 C16.2597272,10.8357853 16.9107443,10.579131 17.3327554,10.0658224 C17.7557665,9.55251385 17.966772,8.85218584 17.966772,7.96483841 L17.966772,0.857105985 Z" id="Fill-4"></path>
                        <path d="M26.5014963,2.13779104 C26.149487,2.40837232 25.9734824,2.79534333 25.9734824,3.30069366 C25.9734824,3.64090982 26.0774851,3.94133462 26.2864906,4.19898371 C26.4944961,4.45762757 26.7745034,4.66752702 27.1245126,4.82768726 C27.4745218,4.98884229 27.8485316,5.16193472 28.2465421,5.344975 C28.6435525,5.52702049 29.0525633,5.71503468 29.4715743,5.90901758 C29.8905853,6.1020057 30.2745954,6.32881648 30.6226045,6.58944991 C30.9706137,6.85008335 31.250621,7.19825778 31.4626266,7.63297844 C31.6746322,8.06769909 31.780635,8.57006506 31.780635,9.13808679 C31.780635,10.2005162 31.4286257,11.0460827 30.7246072,11.6767758 C30.0215887,12.3064742 29.041563,12.6208259 27.78653,12.6208259 C26.1084859,12.6208259 24.8414526,12.2069958 23.9854302,11.3783406 C23.8204258,11.2390708 23.7394237,11.0868688 23.7394237,10.9237243 C23.7394237,10.7715223 23.826426,10.6143464 24.0024306,10.4512018 L24.3374394,10.1527666 C24.512444,9.98962198 24.6824485,9.90804969 24.8474528,9.90804969 C25.0114571,9.90804969 25.1874617,9.98365328 25.3754667,10.1358552 C26.0204836,10.6720439 26.8185046,10.9406356 27.7685295,10.9406356 C28.3905459,10.9406356 28.9005593,10.7745066 29.2995698,10.441254 C29.6985803,10.1080013 29.8975855,9.68521805 29.8975855,9.17091466 C29.8975855,8.66854869 29.6985803,8.25372372 29.3005698,7.92643975 C28.9015593,7.59915578 28.4145465,7.33056407 27.8405314,7.12066462 C27.2655163,6.91076518 26.6905012,6.6779857 26.1154861,6.42232618 C25.539471,6.16766145 25.0524582,5.77969565 24.6534477,5.26041835 C24.2544372,4.74114104 24.055432,4.09055224 24.055432,3.30865193 C24.055432,2.27009733 24.398441,1.45934828 25.0854591,0.875410012 C25.7714771,0.291471743 26.7305023,1.77635684e-13 27.9625346,1.77635684e-13 C29.1705664,1.77635684e-13 30.2145938,0.35613271 31.0946169,1.06839813 C31.4696268,1.32405764 31.4646266,1.61652417 31.0766165,1.94281336 L30.6896063,2.25815992 C30.6196044,2.31685218 30.5546027,2.36659139 30.4956012,2.40737753 C30.4375997,2.44816368 30.3815982,2.47104372 30.3285968,2.47701242 C30.2765954,2.48298113 30.2295942,2.49193418 30.1885931,2.50287681 C30.146592,2.51481422 30.1025909,2.50884551 30.0555896,2.48596548 C30.0095884,2.46209066 29.9765876,2.44816368 29.9595871,2.44219498 C29.9415866,2.43622627 29.9095858,2.42130451 29.8625846,2.39742969 L29.7925827,2.34570092 C29.2405682,1.93783944 28.6545528,1.73291391 28.0325365,1.73291391 C27.3635189,1.73291391 26.8535055,1.86820455 26.5014963,2.13779104 Z" id="Fill-6"></path>
                        <path d="M35.8281413,0.857105985 C35.8281413,0.589509061 35.8721424,0.411442706 35.9601448,0.323901705 C36.0481471,0.236360703 36.2211516,0.192590203 36.4791584,0.192590203 L37.0771741,0.192590203 C37.3351809,0.192590203 37.5091855,0.236360703 37.5971878,0.323901705 C37.6841901,0.411442706 37.7281912,0.589509061 37.7281912,0.857105985 L37.7281912,11.7987364 C37.7281912,12.0673281 37.6841901,12.2424101 37.5971878,12.3239824 C37.5091855,12.4055547 37.3351809,12.4463408 37.0771741,12.4463408 L36.4791584,12.4463408 C36.2211516,12.4463408 36.0481471,12.4055547 35.9601448,12.3239824 C35.8721424,12.2424101 35.8281413,12.0673281 35.8281413,11.7987364 L35.8281413,0.857105985 Z" id="Fill-8"></path>
                        <path d="M44.837678,9.64522772 C45.5066956,10.4629403 46.4447202,10.8708017 47.653752,10.8708017 C48.8617837,10.8708017 49.8008084,10.4599559 50.4688259,9.63627467 C51.1378435,8.81358821 51.4728523,7.70838307 51.4728523,6.31966446 C51.4728523,4.95382589 51.1348434,3.85657902 50.4598257,3.02792386 C49.785808,2.1992687 48.8507834,1.78543851 47.653752,1.78543851 C46.4447202,1.78543851 45.5066956,2.1992687 44.837678,3.02792386 C44.1686604,3.85657902 43.8346516,4.95382589 43.8346516,6.31966446 C43.8346516,7.72032048 44.1686604,8.82850997 44.837678,9.64522772 Z M53.4609045,6.31966446 C53.4609045,8.24556649 52.9418909,9.77653923 51.9038636,10.9145722 C50.8648363,12.0526053 49.4487991,12.620627 47.653752,12.620627 C45.8587048,12.620627 44.4416676,12.0555896 43.4036403,10.9235253 C42.365613,9.79146099 41.8465994,8.25650911 41.8465994,6.31966446 C41.8465994,4.39376243 42.365613,2.86477927 43.4036403,1.73271495 C44.4416676,0.600650643 45.8587048,0.0346184869 47.653752,0.0346184869 C49.4487991,0.0346184869 50.8648363,0.600650643 51.9038636,1.73271495 C52.9418909,2.86477927 53.4609045,4.39376243 53.4609045,6.31966446 Z" id="Fill-10"></path>
                        <path d="M65.8145291,9.73296768 L65.8145291,0.857503898 C65.8145291,0.589906974 65.8585303,0.410845835 65.9465326,0.324299618 C66.0345349,0.236758617 66.2075394,0.192988116 66.4655462,0.192988116 L67.0635619,0.192988116 C67.3225687,0.192988116 67.4945732,0.236758617 67.5825756,0.324299618 C67.6715779,0.410845835 67.715579,0.589906974 67.715579,0.857503898 L67.715579,11.7991343 C67.715579,12.067726 67.6705779,12.2418132 67.5825756,12.3233855 C67.4945732,12.4059526 67.3215687,12.4467387 67.0625619,12.4467387 L66.1635383,12.4467387 C65.8925312,12.4467387 65.6935259,12.4089369 65.5635225,12.3333333 C65.4345191,12.2587245 65.2995156,12.104533 65.1575118,11.8717535 L60.746396,4.8316664 C60.1833812,3.90950153 59.7783705,3.13953864 59.5323641,2.52078292 L59.4793627,2.52078292 L59.4793627,11.7991343 C59.4793627,12.067726 59.4353615,12.2418132 59.3473592,12.3233855 C59.2593569,12.4059526 59.0863523,12.4467387 58.8283456,12.4467387 L58.2303298,12.4467387 C57.971323,12.4467387 57.7993185,12.4059526 57.7103162,12.3233855 C57.6223139,12.2418132 57.5783127,12.067726 57.5783127,11.7991343 L57.5783127,0.857503898 C57.5783127,0.589906974 57.6223139,0.410845835 57.7103162,0.324299618 C57.7993185,0.236758617 57.971323,0.192988116 58.2303298,0.192988116 L59.2673571,0.192988116 C59.5373642,0.192988116 59.7403695,0.230789912 59.874373,0.306393504 C60.0093766,0.381997096 60.1413801,0.531214712 60.2703834,0.753051567 L64.8285032,7.82596655 C65.2515143,8.50241975 65.5625225,9.13808679 65.7615277,9.73296768 L65.8145291,9.73296768 Z" id="Fill-12"></path>
                        <path d="M76.583612,2.61936603 L74.7715644,7.82507125 L78.4596613,7.82507125 L76.583612,2.61936603 Z M79.9016992,11.8260929 L79.0906779,9.57589127 L74.1625484,9.57589127 L73.3795279,11.8260929 C73.309526,12.0747889 73.2195236,12.2399231 73.1095208,12.3224902 C72.9985178,12.4050573 72.815513,12.4458434 72.5605063,12.4458434 L71.8114867,12.4458434 C71.6134815,12.4458434 71.4744778,12.3911303 71.3924756,12.2797145 C71.3104735,12.1692934 71.3054734,12.0200758 71.3754752,11.8340512 L75.3705802,0.804879819 C75.4635826,0.56016293 75.5685854,0.397018336 75.6855884,0.31544604 C75.8015915,0.233873743 75.9875964,0.193087595 76.2446031,0.193087595 L76.9796224,0.193087595 C77.2356292,0.193087595 77.419634,0.233873743 77.5306369,0.316440824 C77.6416398,0.399007905 77.7436425,0.558173361 77.836645,0.79294241 L81.9547531,11.8559364 C82.0837565,12.2498709 81.9367527,12.4458434 81.5157416,12.4458434 L80.7597217,12.4458434 C80.501715,12.4458434 80.3167101,12.4060521 80.2057072,12.3264693 C80.0947043,12.2458918 79.9937016,12.0797629 79.9016992,11.8260929 L79.9016992,11.8260929 Z" id="Fill-14"></path>
                    </g>
                    <g id="Group-25">
                        <path d="M24.8990425,33.647973 L13.9874737,33.647973 C8.77112412,33.647973 4.50483132,29.3816802 4.50483132,24.166611 L4.50483132,13.2537618 C4.50483132,8.03869264 8.77112412,3.77239984 13.9874737,3.77239984 L24.8990425,3.77239984 C30.1141117,3.77239984 34.3804045,8.03869264 34.3804045,13.2537618 L34.3804045,24.166611 C34.3804045,29.3816802 30.1141117,33.647973 24.8990425,33.647973" id="Fill-1" fill="#FFFFFF"></path>
                        <path d="M18.9696382,7.36725088 C16.0631302,4.72194448 13.2219226,2.31863368 10.5266806,0.21365608 L3.79305696,0.21365608 C1.70728536,0.21365608 0.00051216,1.92042928 0.00051216,4.00748128 L0.00051216,27.6244593 C3.54978096,23.0790393 7.94283336,18.1200501 12.9235894,13.1380137 C14.951743,11.1098601 16.9760554,9.18157768 18.9696382,7.36597048 L18.9696382,7.36725088 Z" id="Fill-3" fill="#FDBF0A"></path>
                        <path d="M2.029434,0.65398564 C4.910334,0.27626764 11.8475412,2.47471444 18.8782176,7.45034884 C18.9089472,7.42218004 18.9383964,7.39529164 18.969126,7.36712284 C16.0638984,4.72181644 13.2214104,2.31850564 10.5274488,0.21352804 L3.7938252,0.21352804 C3.1574664,0.21352804 2.5569588,0.37357804 2.029434,0.65398564" id="Fill-5" fill="#FB7F04"></path>
                        <g id="Group-9" transform="translate(0.000000, 19.163533)">
                            <mask id="mask-2" fill="white">
                                <use xlink:href="#path-1"></use>
                            </mask>
                            <g id="Clip-8"></g>
                            <path d="M7.15346676,0.02373008 C4.50816036,2.93023808 2.10612996,5.77016528 -0.00012804,8.46668768 L-0.00012804,15.1990309 C-0.00012804,17.2848025 1.70664516,18.9915757 3.79369716,18.9915757 L27.4106752,18.9915757 C22.8665356,15.4423069 17.906266,11.0505349 12.9242296,6.06849848 C10.896076,4.04034488 8.96779356,2.01731288 7.15218636,0.02244968 C7.15346676,0.02244968 7.15346676,0.02244968 7.15346676,0.02373008" id="Fill-7" fill="#ED4000" mask="url(#mask-2)"></path>
                        </g>
                        <g id="Group-12" transform="translate(0.000000, 19.163533)">
                            <mask id="mask-4" fill="white">
                                <use xlink:href="#path-3"></use>
                            </mask>
                            <g id="Clip-11"></g>
                            <path d="M0.44007348,16.9639342 C0.06363588,14.0817538 2.26208268,7.14454664 7.23771708,0.11515064 C7.20826788,0.08314064 7.18137948,0.05369144 7.15321068,0.02424224 C4.50790428,2.92946984 2.10587388,5.77067744 -0.00038412,8.46591944 L-0.00038412,15.1982626 C-0.00038412,15.8346214 0.15966588,16.435129 0.44007348,16.9639342" id="Fill-10" fill="#DB0202" mask="url(#mask-4)"></path>
                        </g>
                        <g id="Group-15" transform="translate(10.456600, 0.170933)">
                            <mask id="mask-6" fill="white">
                                <use xlink:href="#path-5"></use>
                            </mask>
                            <g id="Clip-14"></g>
                            <path d="M20.3280572,19.0113365 C22.9733636,16.1048285 25.375394,13.2649013 27.481652,10.5683789 L27.481652,3.83603572 C27.481652,1.75026412 25.7735984,0.04349092 23.6878268,0.04349092 L0.0708488,0.04349092 C4.6149884,3.59275972 9.575258,7.98453172 14.556014,12.9665681 C16.5841676,14.9947217 18.51245,17.0177537 20.3280572,19.0126169 L20.3280572,19.0113365 Z" id="Fill-13" fill="#13A7F2" mask="url(#mask-6)"></path>
                        </g>
                        <g id="Group-18" transform="translate(30.516200, 2.091533)">
                            <mask id="mask-8" fill="white">
                                <use xlink:href="#path-7"></use>
                            </mask>
                            <g id="Clip-17"></g>
                            <path d="M6.98057008,0.15040432 C7.35828808,3.03258472 5.15984128,9.96979192 0.18420688,16.9991879 C0.21237568,17.0311979 0.23926408,17.0606471 0.26871328,17.0900963 C2.91401968,14.1848687 5.31605008,11.3436611 7.42230808,8.64841912 L7.42230808,1.91607592 C7.42230808,1.27971712 7.26097768,0.67920952 6.98057008,0.15040432" id="Fill-16" fill="#044FE5" mask="url(#mask-8)"></path>
                        </g>
                        <path d="M18.9684858,31.0021545 C21.8749938,33.6474609 24.7162014,36.0507717 27.4114434,38.1557493 L34.145067,38.1557493 C36.2295582,38.1557493 37.9376118,36.4489761 37.9376118,34.3619241 L37.9376118,10.7449461 C34.388343,15.2903661 29.9952906,20.2493553 25.0132542,25.2313917 C22.986381,27.2595453 20.9620686,29.1878277 18.9672054,31.0034349 C18.9672054,31.0034349 18.9684858,31.0034349 18.9684858,31.0021545" id="Fill-19" fill="#5E3F99"></path>
                        <path d="M35.90869,37.7155478 C33.02779,38.0932658 26.0893024,35.894819 19.0599064,30.9191846 C19.0291768,30.9473534 18.9984472,30.9742418 18.968998,31.0024106 C21.8742256,33.647717 24.7167136,36.0510278 27.4106752,38.1560054 L34.1442988,38.1560054 C34.7806576,38.1560054 35.3811652,37.9959554 35.90869,37.7155478" id="Fill-21" fill="#34236B"></path>
                        <path d="M22.18946,15.974996 C21.126728,14.912264 19.366178,13.2823148 19.366178,13.2823148 C19.1753984,13.1056196 18.86042,13.1056196 18.66836,13.2810344 L17.9167652,13.9750112 C17.727266,14.1529868 17.7259856,14.4474788 17.912924,14.6267348 C17.912924,14.6267348 18.719576,15.4000964 19.2944756,15.974996 C20.3572076,17.037728 22.1856188,18.8162036 22.1856188,18.8162036 C22.3725572,18.99674 22.3725572,19.2950732 22.1856188,19.47689 C22.1856188,19.47689 20.3572076,21.2540852 19.2944756,22.3180976 C18.719576,22.8929972 17.912924,23.6650784 17.912924,23.6650784 C17.7259856,23.8456148 17.727266,24.1388264 17.9167652,24.3180824 L18.66836,25.0120592 C18.86042,25.187474 19.1753984,25.1861936 19.366178,25.0107788 C19.366178,25.0107788 21.126728,23.3808296 22.18946,22.3180976 C23.252192,21.2540852 24.8821412,19.4948156 24.8821412,19.4948156 C25.0588364,19.304036 25.0588364,18.9890576 24.8821412,18.798278 C24.8821412,18.798278 23.252192,17.037728 22.18946,15.974996" id="Fill-23" fill="#3D3A49"></path>
                    </g>
                </g>
            </g>
        </g>
    </g>
</svg>