<?xml version="1.0" encoding="UTF-8"?>
<svg width="15px" height="24px" viewBox="0 0 15 24" version="1.1" xmlns="http://www.w3.org/2000/svg" xmlns:xlink="http://www.w3.org/1999/xlink">
    <!-- Generator: sketchtool 62 (101010) - https://sketch.com -->
    <title>FEAEA355-0327-44BA-BADF-688D0E99D445</title>
    <desc>Created with sketchtool.</desc>
    <g id="HOME" stroke="none" stroke-width="1" fill="none" fill-rule="evenodd">
        <g id="home_desk_02" transform="translate(-536.000000, -196.000000)" fill="#000000">
            <path d="M539.33012,196.522691 C538.549902,195.807673 537.33407,195.828771 536.579984,196.570413 C535.825898,197.312055 535.804446,198.507825 536.531461,199.275168 L545.402682,208 L536.531461,216.724832 C535.804446,217.492175 535.825898,218.687945 536.579984,219.429587 C537.33407,220.171229 538.549902,220.192327 539.33012,219.477309 L551,208 L548.201341,205.247523 L539.33012,196.522691 Z" id="Shape-Copy-3"></path>
        </g>
    </g>
</svg>